…
# Arrange and Group by activity and subject
arrange(data_set_mean_std, Activity, Subject)
```

    ## # A tibble: 10,299 x 82
    ##    timeBodyAcceler… timeBodyAcceler… timeBodyAcceler… timeGravityAcce…
    ##               <dbl>            <dbl>            <dbl>            <dbl>
    ##  1            0.274         -0.0218           -0.102             0.875
    ##  2            0.281         -0.0113           -0.103             0.875
    ##  3            0.381          0.0505            0.0691            0.798
    ##  4            0.267         -0.0196            0.0746            0.834
    ##  5            0.313          0.00368          -0.0501            0.837
    ##  6            0.277         -0.0179           -0.108             0.847
    ##  7            0.272         -0.0196           -0.132             0.848
    ##  8            0.281         -0.0158           -0.144             0.846
    ##  9            0.275         -0.0243           -0.137             0.846
    ## 10            0.279         -0.0156           -0.105             0.846
    ## # … with 10,289 more rows, and 78 more variables:
    ## #   timeGravityAccelerometerMean.Y <dbl>, timeGravityAccelerometerMean.Z <dbl>,
    ## #   timeBodyAccelerometerJerkMean.X <dbl>,
    ## #   timeBodyAccelerometerJerkMean.Y <dbl>,
    ## #   timeBodyAccelerometerJerkMean.Z <dbl>, timeBodyGyroscopeMean.X <dbl>,
    ## #   timeBodyGyroscopeMean.Y <dbl>, timeBodyGyroscopeMean.Z <dbl>,
    ## #   timeBodyGyroscopeJerkMean.X <dbl>, timeBodyGyroscopeJerkMean.Y <dbl>,
    ## #   timeBodyGyroscopeJerkMean.Z <dbl>,
    ## #   timeBodyAccelerometerMagnitudeMean <dbl>,
…
